{
    "src_folders": ["tests/nightwatch"],
    "output_folder": "reports",
    "custom_commands_path": "",
    "custom_assertions_path": "",
    "page_objects_path": "",
    "globals_path": "",

    "selenium": {
        "start_process": true,
        "server_path": "./bin/selenium-server-standalone-3.9.1.jar",
        "log_path": "",
        "port": 4444,
        "cli_args": {
            "webdriver.chrome.driver": "./bin/chromedriver",
            "webdriver.gecko.driver": "./bin/geckodriver",
            "webdriver.edge.driver": ""
        }
    },

    "test_settings": {
        "default": {
            "launch_url": "http://localhost",
            "selenium_port": 4444,
            "selenium_host": "127.0.0.1",
            "silent": true,
            "screenshots": {
                "enabled": false,
                "path": ""
            },
            "desiredCapabilities": {
                "browserName": "firefox",
                "marionette": true
            }
        },

        "chrome": {
            "desiredCapabilities": {
                "browserName": "chrome"
            }
        },

        "edge": {
            "desiredCapabilities": {
                "browserName": "MicrosoftEdge"
            }
        }
    }
}